{
  "project_info": {
    "project_number": "1041668515615",
    "project_id": "vfa-app-725fd",
    "storage_bucket": "vfa-app-725fd.appspot.com"
  },
  "client": [
    {
      "client_info": {
        "mobilesdk_app_id": "1:1041668515615:android:54dfa826fb900212e8b22a",
        "android_client_info": {
          "package_name": "com.go.vfa.virtual"
        }
      },
      "oauth_client": [
        {
          "client_id": "1041668515615-imn5j5u4jv5nue6t6kqrsd39b9rnvpg8.apps.googleusercontent.com",
          "client_type": 3
        }
      ],
      "api_key": [
        {
          "current_key": "AIzaSyDkESQldHA8-_3Ccm7e084Gks5ivfMqbz0"
        }
      ],
      "services": {
        "appinvite_service": {
          "other_platform_oauth_client": [
            {
              "client_id": "1041668515615-imn5j5u4jv5nue6t6kqrsd39b9rnvpg8.apps.googleusercontent.com",
              "client_type": 3
            },
            {
              "client_id": "1041668515615-11nida0rliqgr61t32v18n2mi70bjb06.apps.googleusercontent.com",
              "client_type": 2,
              "ios_info": {
                "bundle_id": "com.go.vfa.virtual"
              }
            }
          ]
        }
      }
    }
  ],
  "configuration_version": "1"
}